%YAML 1.1
%TAG !u! tag:unity3d.com,2011:
--- !u!114 &11400000
MonoBehaviour:
  m_ObjectHideFlags: 0
  m_CorrespondingSourceObject: {fileID: 0}
  m_PrefabInstance: {fileID: 0}
  m_PrefabAsset: {fileID: 0}
  m_GameObject: {fileID: 0}
  m_Enabled: 1
  m_EditorHideFlags: 0
  m_Script: {fileID: 11500000, guid: faa11ec82e9746928e211e7f096812ca, type: 3}
  m_Name: Settings
  m_EditorClassIdentifier: 
  gameAnalyticsIosGameKey: 08ea3144680dddeed983e6b54336d262
  gameAnalyticsIosSecretKey: ad45c7d30b6356d9039a303193b53b355d52355b
  gameAnalyticsAndroidGameKey: 
  gameAnalyticsAndroidSecretKey: 
  facebookAppId: 279373826907735
  adjustIOSToken: xcn772r7ubcw
  adjustAndroidToken: 
